﻿<?xml version="1.0" encoding="utf-8"?>
<TestRun id="c3927575-d65f-4791-bc9c-a6620f63a64c" name="@dinesh-desk 2019-11-19 19:56:53" xmlns="http://microsoft.com/schemas/VisualStudio/TeamTest/2010">
  <Times creation="2019-11-19T19:56:53.2295309+05:30" queuing="2019-11-19T19:56:53.2295310+05:30" start="2019-11-19T19:56:52.3127514+05:30" finish="2019-11-19T19:56:53.2403492+05:30" />
  <TestSettings name="default" id="53c65e3a-9979-422c-8172-c5da50056a4c">
    <Deployment runDeploymentRoot="_dinesh-desk_2019-11-19_19_56_53" />
  </TestSettings>
  <Results>
    <UnitTestResult executionId="6acd205e-ea6c-48cd-9b68-ee1875cc8906" testId="5f31a9d8-b23f-a030-6340-8a378be9bad2" testName="SimpleAPI.Tests.UnitTest1.Test1" computerName="dinesh-desk" duration="00:00:00.0024468" startTime="2019-11-19T19:56:53.1496840+05:30" endTime="2019-11-19T19:56:53.1497337+05:30" testType="13cdc9d9-ddb5-4fa4-a97d-d965ccfc6d4b" outcome="Passed" testListId="8c84fa94-04c1-424b-9868-57a2d4851a1d" relativeResultsDirectory="6acd205e-ea6c-48cd-9b68-ee1875cc8906" />
    <UnitTestResult executionId="5a2cd35c-ad30-4a13-8150-0ba5c9416bba" testId="4fc95de6-a69b-14be-410b-4fd1be1f122a" testName="SimpleAPI.Tests.UnitTest1.GetReturnsMyName" computerName="dinesh-desk" duration="00:00:00.0000752" startTime="2019-11-19T19:56:53.1526403+05:30" endTime="2019-11-19T19:56:53.1526405+05:30" testType="13cdc9d9-ddb5-4fa4-a97d-d965ccfc6d4b" outcome="Passed" testListId="8c84fa94-04c1-424b-9868-57a2d4851a1d" relativeResultsDirectory="5a2cd35c-ad30-4a13-8150-0ba5c9416bba" />
  </Results>
  <TestDefinitions>
    <UnitTest name="SimpleAPI.Tests.UnitTest1.Test1" storage="/home/prashanth/sample/test/simpleapi.tests/bin/debug/netcoreapp3.0/simpleapi.tests.dll" id="5f31a9d8-b23f-a030-6340-8a378be9bad2">
      <Execution id="6acd205e-ea6c-48cd-9b68-ee1875cc8906" />
      <TestMethod codeBase="/home/prashanth/sample/test/SimpleAPI.Tests/bin/Debug/netcoreapp3.0/SimpleAPI.Tests.dll" adapterTypeName="executor://xunit/VsTestRunner2/netcoreapp" className="SimpleAPI.Tests.UnitTest1" name="SimpleAPI.Tests.UnitTest1.Test1" />
    </UnitTest>
    <UnitTest name="SimpleAPI.Tests.UnitTest1.GetReturnsMyName" storage="/home/prashanth/sample/test/simpleapi.tests/bin/debug/netcoreapp3.0/simpleapi.tests.dll" id="4fc95de6-a69b-14be-410b-4fd1be1f122a">
      <Execution id="5a2cd35c-ad30-4a13-8150-0ba5c9416bba" />
      <TestMethod codeBase="/home/prashanth/sample/test/SimpleAPI.Tests/bin/Debug/netcoreapp3.0/SimpleAPI.Tests.dll" adapterTypeName="executor://xunit/VsTestRunner2/netcoreapp" className="SimpleAPI.Tests.UnitTest1" name="SimpleAPI.Tests.UnitTest1.GetReturnsMyName" />
    </UnitTest>
  </TestDefinitions>
  <TestEntries>
    <TestEntry testId="5f31a9d8-b23f-a030-6340-8a378be9bad2" executionId="6acd205e-ea6c-48cd-9b68-ee1875cc8906" testListId="8c84fa94-04c1-424b-9868-57a2d4851a1d" />
    <TestEntry testId="4fc95de6-a69b-14be-410b-4fd1be1f122a" executionId="5a2cd35c-ad30-4a13-8150-0ba5c9416bba" testListId="8c84fa94-04c1-424b-9868-57a2d4851a1d" />
  </TestEntries>
  <TestLists>
    <TestList name="Results Not in a List" id="8c84fa94-04c1-424b-9868-57a2d4851a1d" />
    <TestList name="All Loaded Results" id="19431567-8539-422a-85d7-44ee4e166bda" />
  </TestLists>
  <ResultSummary outcome="Completed">
    <Counters total="2" executed="2" passed="2" failed="0" error="0" timeout="0" aborted="0" inconclusive="0" passedButRunAborted="0" notRunnable="0" notExecuted="0" disconnected="0" warning="0" completed="0" inProgress="0" pending="0" />
    <Output>
      <StdOut>[xUnit.net 00:00:00.00] xUnit.net VSTest Adapter v2.4.0 (64-bit .NET Core 3.0.0)
[xUnit.net 00:00:00.41]   Discovering: SimpleAPI.Tests
[xUnit.net 00:00:00.43]   Discovered:  SimpleAPI.Tests
[xUnit.net 00:00:00.43]   Starting:    SimpleAPI.Tests
[xUnit.net 00:00:00.49]   Finished:    SimpleAPI.Tests
</StdOut>
    </Output>
  </ResultSummary>
</TestRun>